1,415,416,417,418,419,420,421,422,423,424,425,426,427,428,429,430,431,432,433,434,435,436,437,438,439,440,441,442,443,444,445,446,447,448,449,450,451,452,453,454,455,456,457,458,459,460,461,462,463,464,465,466,467,468,469,470,471,472,473,474,475,476,477,478,479,480,481,482,483,484,485,486,487,488,489,490,491,492,493,494,495,496,497,498,499,500,501,502,503,504,505,506,507,508,509,510,511,512,513,514,515,516,517,518,519,520,521,522,523,524,525,526,527,528,529,530,531,2,532,533,534,535,536,537,538,539,540,541,542,543,544,545,546,547,548,3,583,584,585,586,587,588,589,590,591,592,593,594,595,596,597,598,599,4,281,282,283,284,285,286,287,288,289,290,291,292,293,294,295,296,297,298,299,300,301,302,303,304,305,306,307,308,309,310,311,312,313,314,315,316,317,318,319,320,321,322,323,324,325,326,327,328,329,330,331,332,333,334,335,336,337,338,339,340,341,342,343,344,345,346,347,348,349,350,351,352,353,354,355,356,357,358,359,360,361,362,363,364,365,366,367,368,369,370,371,372,373,374,375,376,377,378,379,380,381,382,383,384,385,386,387,388,389,390,391,392,393,394,395,396,397,5,398,399,400,401,402,403,404,405,406,407,408,409,410,411,412,413,414,6,566,567,568,569,570,571,572,573,574,575,576,577,578,579,580,581,582,7,164,165,166,167,168,169,170,171,172,173,174,175,176,177,178,179,180,181,182,183,184,185,186,187,188,189,190,191,192,193,194,195,196,197,198,199,200,201,202,203,204,205,206,207,208,209,210,211,212,213,214,215,216,217,218,219,220,221,222,223,224,225,226,227,228,229,230,231,232,233,234,235,236,237,238,239,240,241,242,243,244,245,246,247,248,249,250,251,252,253,254,255,256,257,258,259,260,261,262,263,264,265,266,267,268,269,270,271,272,273,274,275,276,277,278,279,280,8,30,31,32,33,34,35,36,37,38,39,40,41,42,43,44,45,46,9,13,14,15,16,17,18,19,20,21,22,23,24,25,26,27,28,29,10,47,48,49,50,51,52,53,54,55,56,57,58,59,60,61,62,63,64,65,66,67,68,69,70,71,72,73,74,75,76,77,78,79,80,81,82,83,84,85,86,87,88,89,90,91,92,93,94,95,96,97,98,99,100,101,102,103,104,105,106,107,108,109,110,111,112,113,114,115,116,117,118,119,120,121,122,123,124,125,126,127,128,129,130,131,132,133,134,135,136,137,138,139,140,141,142,143,144,145,146,147,148,149,150,151,152,153,154,155,156,157,158,159,160,161,162,163,11,549,550,551,552,553,554,555,556,557,558,559,560,561,562,563,564,565,12,600,601,602,603,604,605,606,607,608,609,610,611,612,613,614,615,616
415,416,417,418,419,420,421,422,423,424,425,426,427,428,429,430,431,432,433,434,435,436,437,438,439,440,441,442,443,444,445,446,447,448,449,450,451,452,453,454,455,456,457,458,459,460,461,462,463,464,465,466,467,468,469,470,471,472,473,474,475,476,477,478,479,480,481,482,483,484,485,486,487,488,489,490,491,492,493,494,495,496,497,498,499,500,501,502,503,504,505,506,507,508,509,510,511,512,513,514,515,516,517,518,519,520,521,522,523,524,525,526,527,528,529,530,531,2,532,533,534,535,536,537,538,539,540,541,542,543,544,545,546,547,548,3,583,584,585,586,587,588,589,590,591,592,593,594,595,596,597,598,599,4,281,282,283,284,285,286,287,288,289,290,291,292,293,294,295,296,297,298,299,300,301,302,303,304,305,306,307,308,309,310,311,312,313,314,315,316,317,318,319,320,321,322,323,324,325,326,327,328,329,330,331,332,333,334,335,336,337,338,339,340,341,342,343,344,345,346,347,348,349,350,351,352,353,354,355,356,357,358,359,360,361,362,363,364,365,366,367,368,369,370,371,372,373,374,375,376,377,378,379,380,381,382,383,384,385,386,387,388,389,390,391,392,393,394,395,396,397,5,398,399,400,401,402,403,404,405,406,407,408,409,410,411,412,413,414,6,566,567,568,569,570,571,572,573,574,575,576,577,578,579,580,581,582,7,164,165,166,167,168,169,170,171,172,173,174,175,176,177,178,179,180,181,182,183,184,185,186,187,188,189,190,191,192,193,194,195,196,197,198,199,200,201,202,203,204,205,206,207,208,209,210,211,212,213,214,215,216,217,218,219,220,221,222,223,224,225,226,227,228,229,230,231,232,233,234,235,236,237,238,239,240,241,242,243,244,245,246,247,248,249,250,251,252,253,254,255,256,257,258,259,260,261,262,263,264,265,266,267,268,269,270,271,272,273,274,275,276,277,278,279,280,8,30,31,32,33,34,35,36,37,38,39,40,41,42,43,44,45,46,9,13,14,15,16,17,18,19,20,21,22,23,24,25,26,27,28,29,10,47,48,49,50,51,52,53,54,55,56,57,58,59,60,61,62,63,64,65,66,67,68,69,70,71,72,73,74,75,76,77,78,79,80,81,82,83,84,85,86,87,88,89,90,91,92,93,94,95,96,97,98,99,100,101,102,103,104,105,106,107,108,109,110,111,112,113,114,115,116,117,118,119,120,121,122,123,124,125,126,127,128,129,130,131,132,133,134,135,136,137,138,139,140,141,142,143,144,145,146,147,148,149,150,151,152,153,154,155,156,157,158,159,160,161,162,163,11,549,550,551,552,553,554,555,556,557,558,559,560,561,562,563,564,565,12,600,601,602,603,604,605,606,607,608,609,610,611,612,613,614,615,616,1
0.2,0.208248149923322,0.213838869189234,0.218859239905212,0.22387961062119,0.228899981337169,0.233920352053147,0.238940722769126,0.243961093485104,0.248981464201082,0.254001834917061,0.259022205633039,0.264042576349017,0.269062947064996,0.274083317780974,0.279103688496952,0.284124059212931,0.289144429928909,0.294164800644888,0.299185171360866,0.304205542076844,0.309225912792823,0.314246283508801,0.319266654224779,0.324287024940758,0.329307395656736,0.334327766372714,0.339348137088693,0.344368507804671,0.349388878520649,0.354409249236628,0.359429619952606,0.364449990668585,0.369470361384563,0.374490732100541,0.37951110281652,0.384531473532498,0.389551844248476,0.394572214964455,0.399592585680433,0.404612956396411,0.40963332711239,0.414653697828368,0.419674068544346,0.424694439260325,0.429714809976303,0.434735180692282,0.43975555140826,0.444775922124238,0.449796292840217,0.454816663556195,0.459837034272173,0.464857404988152,0.46987777570413,0.474898146420108,0.479918517136087,0.484938887852065,0.489959258568044,0.494979629284022,0.5,0.505020370715979,0.510040741431957,0.515061112147935,0.520081482863914,0.525101853579892,0.53012222429587,0.535142595011849,0.540162965727827,0.545183336443805,0.550203707159784,0.555224077875762,0.56024444859174,0.565264819307719,0.570285190023697,0.575305560739675,0.580325931455654,0.585346302171632,0.59036667288761,0.595387043603589,0.600407414319567,0.605427785035546,0.610448155751524,0.615468526467502,0.620488897183481,0.625509267899459,0.630529638615437,0.635550009331416,0.640570380047394,0.645590750763372,0.650611121479351,0.655631492195329,0.660651862911308,0.665672233627286,0.670692604343264,0.675712975059243,0.680733345775221,0.685753716491199,0.690774087207178,0.695794457923156,0.700814828639134,0.705835199355113,0.710855570071091,0.715875940787069,0.720896311503048,0.725916682219026,0.730937052935004,0.735957423650983,0.740977794366961,0.745998165082939,0.751018535798918,0.756038906514896,0.761059277230874,0.766079647946853,0.771100018662831,0.77612038937881,0.781140760094788,0.786161130810766,0.791751850076678,0.8,0.810873696173996,0.822459815457473,0.833333420681624,0.844206993791446,0.85579311307512,0.866666710305743,0.877540291479142,0.889126410762915,0.9,0.910873589237085,0.922459708520858,0.933333289694257,0.94420688692488,0.955793006208554,0.966666579318377,0.977540184542527,0.989126303826004,1,1.010873696174,1.02245981545747,1.03333342068162,1.04420699379145,1.05579311307512,1.06666671030574,1.07754029147914,1.08912641076292,1.1,1.11087358923708,1.12245970852086,1.13333328969426,1.14420688692488,1.15579300620855,1.16666657931838,1.17754018454253,1.189126303826,1.2,1.20824814992332,1.21383886918923,1.21885923990521,1.22387961062119,1.22889998133717,1.23392035205315,1.23894072276913,1.2439610934851,1.24898146420108,1.25400183491706,1.25902220563304,1.26404257634902,1.269062947065,1.27408331778097,1.27910368849695,1.28412405921293,1.28914442992891,1.29416480064489,1.29918517136087,1.30420554207684,1.30922591279282,1.3142462835088,1.31926665422478,1.32428702494076,1.32930739565674,1.33432776637271,1.33934813708869,1.34436850780467,1.34938887852065,1.35440924923663,1.35942961995261,1.36444999066858,1.36947036138456,1.37449073210054,1.37951110281652,1.3845314735325,1.38955184424848,1.39457221496445,1.39959258568043,1.40461295639641,1.40963332711239,1.41465369782837,1.41967406854435,1.42469443926032,1.4297148099763,1.43473518069228,1.43975555140826,1.44477592212424,1.44979629284022,1.45481666355619,1.45983703427217,1.46485740498815,1.46987777570413,1.47489814642011,1.47991851713609,1.48493888785207,1.48995925856804,1.49497962928402,1.5,1.50502037071598,1.51004074143196,1.51506111214794,1.52008148286391,1.52510185357989,1.53012222429587,1.53514259501185,1.54016296572783,1.54518333644381,1.55020370715978,1.55522407787576,1.56024444859174,1.56526481930772,1.5702851900237,1.57530556073968,1.58032593145565,1.58534630217163,1.59036667288761,1.59538704360359,1.60040741431957,1.60542778503555,1.61044815575152,1.6154685264675,1.62048889718348,1.62550926789946,1.63052963861544,1.63555000933142,1.64057038004739,1.64559075076337,1.65061112147935,1.65563149219533,1.66065186291131,1.66567223362729,1.67069260434326,1.67571297505924,1.68073334577522,1.6857537164912,1.69077408720718,1.69579445792316,1.70081482863913,1.70583519935511,1.71085557007109,1.71587594078707,1.72089631150305,1.72591668221903,1.730937052935,1.73595742365098,1.74097779436696,1.74599816508294,1.75101853579892,1.7560389065149,1.76105927723087,1.76607964794685,1.77110001866283,1.77612038937881,1.78114076009479,1.78616113081077,1.79175185007668,1.8,1.810873696174,1.82245981545747,1.83333342068162,1.84420699379145,1.85579311307512,1.86666671030574,1.87754029147914,1.88912641076292,1.9,1.91087358923708,1.92245970852086,1.93333328969426,1.94420688692488,1.95579300620855,1.96666657931838,1.97754018454253,1.989126303826,2,2.010873696174,2.02245981545747,2.03333342068162,2.04420699379145,2.05579311307512,2.06666671030574,2.07754029147914,2.08912641076292,2.1,2.11087358923709,2.12245970852086,2.13333328969426,2.14420688692488,2.15579300620855,2.16666657931838,2.17754018454253,2.189126303826,2.2,2.20824814992332,2.21383886918923,2.21885923990521,2.22387961062119,2.22889998133717,2.23392035205315,2.23894072276913,2.2439610934851,2.24898146420108,2.25400183491706,2.25902220563304,2.26404257634902,2.269062947065,2.27408331778097,2.27910368849695,2.28412405921293,2.28914442992891,2.29416480064489,2.29918517136087,2.30420554207684,2.30922591279282,2.3142462835088,2.31926665422478,2.32428702494076,2.32930739565674,2.33432776637271,2.33934813708869,2.34436850780467,2.34938887852065,2.35440924923663,2.35942961995261,2.36444999066858,2.36947036138456,2.37449073210054,2.37951110281652,2.3845314735325,2.38955184424848,2.39457221496445,2.39959258568043,2.40461295639641,2.40963332711239,2.41465369782837,2.41967406854435,2.42469443926032,2.4297148099763,2.43473518069228,2.43975555140826,2.44477592212424,2.44979629284022,2.45481666355619,2.45983703427217,2.46485740498815,2.46987777570413,2.47489814642011,2.47991851713609,2.48493888785206,2.48995925856804,2.49497962928402,2.5,2.50502037071598,2.51004074143196,2.51506111214793,2.52008148286391,2.52510185357989,2.53012222429587,2.53514259501185,2.54016296572783,2.54518333644381,2.55020370715978,2.55522407787576,2.56024444859174,2.56526481930772,2.5702851900237,2.57530556073968,2.58032593145565,2.58534630217163,2.59036667288761,2.59538704360359,2.60040741431957,2.60542778503555,2.61044815575152,2.6154685264675,2.62048889718348,2.62550926789946,2.63052963861544,2.63555000933142,2.64057038004739,2.64559075076337,2.65061112147935,2.65563149219533,2.66065186291131,2.66567223362729,2.67069260434326,2.67571297505924,2.68073334577522,2.6857537164912,2.69077408720718,2.69579445792316,2.70081482863913,2.70583519935511,2.71085557007109,2.71587594078707,2.72089631150305,2.72591668221903,2.730937052935,2.73595742365098,2.74097779436696,2.74599816508294,2.75101853579892,2.7560389065149,2.76105927723087,2.76607964794685,2.77110001866283,2.77612038937881,2.78114076009479,2.78616113081077,2.79175185007668,2.8,2.810873696174,2.82245981545747,2.83333342068162,2.84420699379145,2.85579311307512,2.86666671030574,2.87754029147914,2.88912641076291,2.9,2.91087358923708,2.92245970852086,2.93333328969426,2.94420688692488,2.95579300620855,2.96666657931838,2.97754018454253,2.989126303826,3,3.010873696174,3.02245981545747,3.03333342068162,3.04420699379145,3.05579311307512,3.06666671030574,3.07754029147914,3.08912641076292,3.1,3.11087358923709,3.12245970852086,3.13333328969426,3.14420688692488,3.15579300620855,3.16666657931838,3.17754018454253,3.189126303826,3.2,3.20824814992332,3.21383886918923,3.21885923990521,3.22387961062119,3.22889998133717,3.23392035205315,3.23894072276913,3.2439610934851,3.24898146420108,3.25400183491706,3.25902220563304,3.26404257634902,3.269062947065,3.27408331778097,3.27910368849695,3.28412405921293,3.28914442992891,3.29416480064489,3.29918517136087,3.30420554207684,3.30922591279282,3.3142462835088,3.31926665422478,3.32428702494076,3.32930739565674,3.33432776637271,3.33934813708869,3.34436850780467,3.34938887852065,3.35440924923663,3.35942961995261,3.36444999066858,3.36947036138456,3.37449073210054,3.37951110281652,3.3845314735325,3.38955184424848,3.39457221496445,3.39959258568043,3.40461295639641,3.40963332711239,3.41465369782837,3.41967406854435,3.42469443926032,3.4297148099763,3.43473518069228,3.43975555140826,3.44477592212424,3.44979629284022,3.45481666355619,3.45983703427217,3.46485740498815,3.46987777570413,3.47489814642011,3.47991851713609,3.48493888785206,3.48995925856804,3.49497962928402,3.5,3.50502037071598,3.51004074143196,3.51506111214794,3.52008148286391,3.52510185357989,3.53012222429587,3.53514259501185,3.54016296572783,3.54518333644381,3.55020370715978,3.55522407787576,3.56024444859174,3.56526481930772,3.5702851900237,3.57530556073968,3.58032593145565,3.58534630217163,3.59036667288761,3.59538704360359,3.60040741431957,3.60542778503555,3.61044815575152,3.6154685264675,3.62048889718348,3.62550926789946,3.63052963861544,3.63555000933142,3.64057038004739,3.64559075076337,3.65061112147935,3.65563149219533,3.66065186291131,3.66567223362729,3.67069260434326,3.67571297505924,3.68073334577522,3.6857537164912,3.69077408720718,3.69579445792316,3.70081482863913,3.70583519935511,3.71085557007109,3.71587594078707,3.72089631150305,3.72591668221903,3.730937052935,3.73595742365098,3.74097779436696,3.74599816508294,3.75101853579892,3.7560389065149,3.76105927723087,3.76607964794685,3.77110001866283,3.77612038937881,3.78114076009479,3.78616113081077,3.79175185007668,3.8,3.810873696174,3.82245981545747,3.83333342068162,3.84420699379145,3.85579311307512,3.86666671030574,3.87754029147914,3.88912641076291,3.9,3.91087358923708,3.92245970852086,3.93333328969426,3.94420688692488,3.95579300620855,3.96666657931838,3.97754018454253,3.989126303826,4,4.010873696174,4.02245981545747,4.03333342068162,4.04420699379145,4.05579311307512,4.06666671030574,4.07754029147914,4.08912641076291,4.1,4.11087358923709,4.12245970852086,4.13333328969426,4.14420688692488,4.15579300620855,4.16666657931838,4.17754018454253,4.189126303826
0.208248149923322,0.213838869189234,0.218859239905212,0.22387961062119,0.228899981337169,0.233920352053147,0.238940722769126,0.243961093485104,0.248981464201082,0.254001834917061,0.259022205633039,0.264042576349017,0.269062947064996,0.274083317780974,0.279103688496952,0.284124059212931,0.289144429928909,0.294164800644888,0.299185171360866,0.304205542076844,0.309225912792823,0.314246283508801,0.319266654224779,0.324287024940758,0.329307395656736,0.334327766372714,0.339348137088693,0.344368507804671,0.349388878520649,0.354409249236628,0.359429619952606,0.364449990668585,0.369470361384563,0.374490732100541,0.37951110281652,0.384531473532498,0.389551844248476,0.394572214964455,0.399592585680433,0.404612956396411,0.40963332711239,0.414653697828368,0.419674068544346,0.424694439260325,0.429714809976303,0.434735180692282,0.43975555140826,0.444775922124238,0.449796292840217,0.454816663556195,0.459837034272173,0.464857404988152,0.46987777570413,0.474898146420108,0.479918517136087,0.484938887852065,0.489959258568044,0.494979629284022,0.5,0.505020370715979,0.510040741431957,0.515061112147935,0.520081482863914,0.525101853579892,0.53012222429587,0.535142595011849,0.540162965727827,0.545183336443805,0.550203707159784,0.555224077875762,0.56024444859174,0.565264819307719,0.570285190023697,0.575305560739675,0.580325931455654,0.585346302171632,0.59036667288761,0.595387043603589,0.600407414319567,0.605427785035546,0.610448155751524,0.615468526467502,0.620488897183481,0.625509267899459,0.630529638615437,0.635550009331416,0.640570380047394,0.645590750763372,0.650611121479351,0.655631492195329,0.660651862911308,0.665672233627286,0.670692604343264,0.675712975059243,0.680733345775221,0.685753716491199,0.690774087207178,0.695794457923156,0.700814828639134,0.705835199355113,0.710855570071091,0.715875940787069,0.720896311503048,0.725916682219026,0.730937052935004,0.735957423650983,0.740977794366961,0.745998165082939,0.751018535798918,0.756038906514896,0.761059277230874,0.766079647946853,0.771100018662831,0.77612038937881,0.781140760094788,0.786161130810766,0.791751850076678,0.8,0.810873696173996,0.822459815457473,0.833333420681624,0.844206993791446,0.85579311307512,0.866666710305743,0.877540291479142,0.889126410762915,0.9,0.910873589237085,0.922459708520858,0.933333289694257,0.94420688692488,0.955793006208554,0.966666579318377,0.977540184542527,0.989126303826004,1,1.010873696174,1.02245981545747,1.03333342068162,1.04420699379145,1.05579311307512,1.06666671030574,1.07754029147914,1.08912641076292,1.1,1.11087358923708,1.12245970852086,1.13333328969426,1.14420688692488,1.15579300620855,1.16666657931838,1.17754018454253,1.189126303826,1.2,1.20824814992332,1.21383886918923,1.21885923990521,1.22387961062119,1.22889998133717,1.23392035205315,1.23894072276913,1.2439610934851,1.24898146420108,1.25400183491706,1.25902220563304,1.26404257634902,1.269062947065,1.27408331778097,1.27910368849695,1.28412405921293,1.28914442992891,1.29416480064489,1.29918517136087,1.30420554207684,1.30922591279282,1.3142462835088,1.31926665422478,1.32428702494076,1.32930739565674,1.33432776637271,1.33934813708869,1.34436850780467,1.34938887852065,1.35440924923663,1.35942961995261,1.36444999066858,1.36947036138456,1.37449073210054,1.37951110281652,1.3845314735325,1.38955184424848,1.39457221496445,1.39959258568043,1.40461295639641,1.40963332711239,1.41465369782837,1.41967406854435,1.42469443926032,1.4297148099763,1.43473518069228,1.43975555140826,1.44477592212424,1.44979629284022,1.45481666355619,1.45983703427217,1.46485740498815,1.46987777570413,1.47489814642011,1.47991851713609,1.48493888785207,1.48995925856804,1.49497962928402,1.5,1.50502037071598,1.51004074143196,1.51506111214794,1.52008148286391,1.52510185357989,1.53012222429587,1.53514259501185,1.54016296572783,1.54518333644381,1.55020370715978,1.55522407787576,1.56024444859174,1.56526481930772,1.5702851900237,1.57530556073968,1.58032593145565,1.58534630217163,1.59036667288761,1.59538704360359,1.60040741431957,1.60542778503555,1.61044815575152,1.6154685264675,1.62048889718348,1.62550926789946,1.63052963861544,1.63555000933142,1.64057038004739,1.64559075076337,1.65061112147935,1.65563149219533,1.66065186291131,1.66567223362729,1.67069260434326,1.67571297505924,1.68073334577522,1.6857537164912,1.69077408720718,1.69579445792316,1.70081482863913,1.70583519935511,1.71085557007109,1.71587594078707,1.72089631150305,1.72591668221903,1.730937052935,1.73595742365098,1.74097779436696,1.74599816508294,1.75101853579892,1.7560389065149,1.76105927723087,1.76607964794685,1.77110001866283,1.77612038937881,1.78114076009479,1.78616113081077,1.79175185007668,1.8,1.810873696174,1.82245981545747,1.83333342068162,1.84420699379145,1.85579311307512,1.86666671030574,1.87754029147914,1.88912641076292,1.9,1.91087358923708,1.92245970852086,1.93333328969426,1.94420688692488,1.95579300620855,1.96666657931838,1.97754018454253,1.989126303826,2,2.010873696174,2.02245981545747,2.03333342068162,2.04420699379145,2.05579311307512,2.06666671030574,2.07754029147914,2.08912641076292,2.1,2.11087358923709,2.12245970852086,2.13333328969426,2.14420688692488,2.15579300620855,2.16666657931838,2.17754018454253,2.189126303826,2.2,2.20824814992332,2.21383886918923,2.21885923990521,2.22387961062119,2.22889998133717,2.23392035205315,2.23894072276913,2.2439610934851,2.24898146420108,2.25400183491706,2.25902220563304,2.26404257634902,2.269062947065,2.27408331778097,2.27910368849695,2.28412405921293,2.28914442992891,2.29416480064489,2.29918517136087,2.30420554207684,2.30922591279282,2.3142462835088,2.31926665422478,2.32428702494076,2.32930739565674,2.33432776637271,2.33934813708869,2.34436850780467,2.34938887852065,2.35440924923663,2.35942961995261,2.36444999066858,2.36947036138456,2.37449073210054,2.37951110281652,2.3845314735325,2.38955184424848,2.39457221496445,2.39959258568043,2.40461295639641,2.40963332711239,2.41465369782837,2.41967406854435,2.42469443926032,2.4297148099763,2.43473518069228,2.43975555140826,2.44477592212424,2.44979629284022,2.45481666355619,2.45983703427217,2.46485740498815,2.46987777570413,2.47489814642011,2.47991851713609,2.48493888785206,2.48995925856804,2.49497962928402,2.5,2.50502037071598,2.51004074143196,2.51506111214793,2.52008148286391,2.52510185357989,2.53012222429587,2.53514259501185,2.54016296572783,2.54518333644381,2.55020370715978,2.55522407787576,2.56024444859174,2.56526481930772,2.5702851900237,2.57530556073968,2.58032593145565,2.58534630217163,2.59036667288761,2.59538704360359,2.60040741431957,2.60542778503555,2.61044815575152,2.6154685264675,2.62048889718348,2.62550926789946,2.63052963861544,2.63555000933142,2.64057038004739,2.64559075076337,2.65061112147935,2.65563149219533,2.66065186291131,2.66567223362729,2.67069260434326,2.67571297505924,2.68073334577522,2.6857537164912,2.69077408720718,2.69579445792316,2.70081482863913,2.70583519935511,2.71085557007109,2.71587594078707,2.72089631150305,2.72591668221903,2.730937052935,2.73595742365098,2.74097779436696,2.74599816508294,2.75101853579892,2.7560389065149,2.76105927723087,2.76607964794685,2.77110001866283,2.77612038937881,2.78114076009479,2.78616113081077,2.79175185007668,2.8,2.810873696174,2.82245981545747,2.83333342068162,2.84420699379145,2.85579311307512,2.86666671030574,2.87754029147914,2.88912641076291,2.9,2.91087358923708,2.92245970852086,2.93333328969426,2.94420688692488,2.95579300620855,2.96666657931838,2.97754018454253,2.989126303826,3,3.010873696174,3.02245981545747,3.03333342068162,3.04420699379145,3.05579311307512,3.06666671030574,3.07754029147914,3.08912641076292,3.1,3.11087358923709,3.12245970852086,3.13333328969426,3.14420688692488,3.15579300620855,3.16666657931838,3.17754018454253,3.189126303826,3.2,3.20824814992332,3.21383886918923,3.21885923990521,3.22387961062119,3.22889998133717,3.23392035205315,3.23894072276913,3.2439610934851,3.24898146420108,3.25400183491706,3.25902220563304,3.26404257634902,3.269062947065,3.27408331778097,3.27910368849695,3.28412405921293,3.28914442992891,3.29416480064489,3.29918517136087,3.30420554207684,3.30922591279282,3.3142462835088,3.31926665422478,3.32428702494076,3.32930739565674,3.33432776637271,3.33934813708869,3.34436850780467,3.34938887852065,3.35440924923663,3.35942961995261,3.36444999066858,3.36947036138456,3.37449073210054,3.37951110281652,3.3845314735325,3.38955184424848,3.39457221496445,3.39959258568043,3.40461295639641,3.40963332711239,3.41465369782837,3.41967406854435,3.42469443926032,3.4297148099763,3.43473518069228,3.43975555140826,3.44477592212424,3.44979629284022,3.45481666355619,3.45983703427217,3.46485740498815,3.46987777570413,3.47489814642011,3.47991851713609,3.48493888785206,3.48995925856804,3.49497962928402,3.5,3.50502037071598,3.51004074143196,3.51506111214794,3.52008148286391,3.52510185357989,3.53012222429587,3.53514259501185,3.54016296572783,3.54518333644381,3.55020370715978,3.55522407787576,3.56024444859174,3.56526481930772,3.5702851900237,3.57530556073968,3.58032593145565,3.58534630217163,3.59036667288761,3.59538704360359,3.60040741431957,3.60542778503555,3.61044815575152,3.6154685264675,3.62048889718348,3.62550926789946,3.63052963861544,3.63555000933142,3.64057038004739,3.64559075076337,3.65061112147935,3.65563149219533,3.66065186291131,3.66567223362729,3.67069260434326,3.67571297505924,3.68073334577522,3.6857537164912,3.69077408720718,3.69579445792316,3.70081482863913,3.70583519935511,3.71085557007109,3.71587594078707,3.72089631150305,3.72591668221903,3.730937052935,3.73595742365098,3.74097779436696,3.74599816508294,3.75101853579892,3.7560389065149,3.76105927723087,3.76607964794685,3.77110001866283,3.77612038937881,3.78114076009479,3.78616113081077,3.79175185007668,3.8,3.810873696174,3.82245981545747,3.83333342068162,3.84420699379145,3.85579311307512,3.86666671030574,3.87754029147914,3.88912641076291,3.9,3.91087358923708,3.92245970852086,3.93333328969426,3.94420688692488,3.95579300620855,3.96666657931838,3.97754018454253,3.989126303826,4,4.010873696174,4.02245981545747,4.03333342068162,4.04420699379145,4.05579311307512,4.06666671030574,4.07754029147914,4.08912641076291,4.1,4.11087358923709,4.12245970852086,4.13333328969426,4.14420688692488,4.15579300620855,4.16666657931838,4.17754018454253,4.189126303826,4.2
1,1,1,1,1,1,1,1,1,1,1,1,1,1,1,1,1,1,1,1,1,1,1,1,1,1,1,1,1,1,1,1,1,1,1,1,1,1,1,1,1,1,1,1,1,1,1,1,1,1,1,1,1,1,1,1,1,1,1,1,1,1,1,1,1,1,1,1,1,1,1,1,1,1,1,1,1,1,1,1,1,1,1,1,1,1,1,1,1,1,1,1,1,1,1,1,1,1,1,1,1,1,1,1,1,1,1,1,1,1,1,1,1,1,1,1,1,1,2,2,2,2,2,2,2,2,2,2,2,2,2,2,2,2,2,2,3,3,3,3,3,3,3,3,3,3,3,3,3,3,3,3,3,3,4,4,4,4,4,4,4,4,4,4,4,4,4,4,4,4,4,4,4,4,4,4,4,4,4,4,4,4,4,4,4,4,4,4,4,4,4,4,4,4,4,4,4,4,4,4,4,4,4,4,4,4,4,4,4,4,4,4,4,4,4,4,4,4,4,4,4,4,4,4,4,4,4,4,4,4,4,4,4,4,4,4,4,4,4,4,4,4,4,4,4,4,4,4,4,4,4,4,4,4,4,4,4,4,4,4,4,4,4,4,4,4,4,4,4,4,4,4,5,5,5,5,5,5,5,5,5,5,5,5,5,5,5,5,5,5,6,6,6,6,6,6,6,6,6,6,6,6,6,6,6,6,6,6,7,7,7,7,7,7,7,7,7,7,7,7,7,7,7,7,7,7,7,7,7,7,7,7,7,7,7,7,7,7,7,7,7,7,7,7,7,7,7,7,7,7,7,7,7,7,7,7,7,7,7,7,7,7,7,7,7,7,7,7,7,7,7,7,7,7,7,7,7,7,7,7,7,7,7,7,7,7,7,7,7,7,7,7,7,7,7,7,7,7,7,7,7,7,7,7,7,7,7,7,7,7,7,7,7,7,7,7,7,7,7,7,7,7,7,7,7,7,8,8,8,8,8,8,8,8,8,8,8,8,8,8,8,8,8,8,9,9,9,9,9,9,9,9,9,9,9,9,9,9,9,9,9,9,10,10,10,10,10,10,10,10,10,10,10,10,10,10,10,10,10,10,10,10,10,10,10,10,10,10,10,10,10,10,10,10,10,10,10,10,10,10,10,10,10,10,10,10,10,10,10,10,10,10,10,10,10,10,10,10,10,10,10,10,10,10,10,10,10,10,10,10,10,10,10,10,10,10,10,10,10,10,10,10,10,10,10,10,10,10,10,10,10,10,10,10,10,10,10,10,10,10,10,10,10,10,10,10,10,10,10,10,10,10,10,10,10,10,10,10,10,10,11,11,11,11,11,11,11,11,11,11,11,11,11,11,11,11,11,11,12,12,12,12,12,12,12,12,12,12,12,12,12,12,12,12,12,12
1,1,1,1,1,1,1,1,1,1,1,1,1,1,1,1,1,1,1,1,1,1,1,1,1,1,1,1,1,1,1,1,1,1,1,1,1,1,1,1,1,1,1,1,1,1,1,1,1,1,1,1,1,1,1,1,1,1,1,1,1,1,1,1,1,1,1,1,1,1,1,1,1,1,1,1,1,1,1,1,1,1,1,1,1,1,1,1,1,1,1,1,1,1,1,1,1,1,1,1,1,1,1,1,1,1,1,1,1,1,1,1,1,1,1,1,1,1,1,1,1,1,1,1,1,1,1,1,1,1,1,1,1,1,1,1,1,1,1,1,1,1,1,1,1,1,1,1,1,1,1,1,1,1,1,1,1,1,1,1,1,1,1,1,1,1,1,1,1,1,1,1,1,1,1,1,1,1,1,1,1,1,1,1,1,1,1,1,1,1,1,1,1,1,1,1,1,1,1,1,1,1,1,1,1,1,1,1,1,1,1,1,1,1,1,1,1,1,1,1,1,1,1,1,1,1,1,1,1,1,1,1,1,1,1,1,1,1,1,1,1,1,1,1,1,1,1,1,1,1,1,1,1,1,1,1,1,1,1,1,1,1,1,1,1,1,1,1,1,1,1,1,1,1,1,1,1,1,1,1,1,1,1,1,1,1,1,1,1,1,1,1,1,1,1,1,1,1,1,1,1,1,1,1,1,1,1,1,1,1,1,1,1,1,1,1,1,1,1,1,1,1,1,1,1,1,1,1,1,1,1,1,1,1,1,1,1,1,1,1,1,1,1,1,1,1,1,1,1,1,1,1,1,1,1,1,1,1,1,1,1,1,1,1,1,1,1,1,1,1,1,1,1,1,1,1,1,1,1,1,1,1,1,1,1,1,1,1,1,1,1,1,1,1,1,1,1,1,1,1,1,1,1,1,1,1,1,1,1,1,1,1,1,1,1,1,1,1,1,1,1,1,1,1,1,1,1,1,1,1,1,1,1,1,1,1,1,1,1,1,1,1,1,1,1,1,1,1,1,1,1,1,1,1,1,1,1,1,1,1,1,1,1,1,1,1,1,1,1,1,1,1,1,1,1,1,1,1,1,1,1,1,1,1,1,1,1,1,1,1,1,1,1,1,1,1,1,1,1,1,1,1,1,1,1,1,1,1,1,1,1,1,1,1,1,1,1,1,1,1,1,1,1,1,1,1,1,1,1,1,1,1,1,1,1,1,1,1,1,1,1,1,1,1,1,1,1,1,1,1,1,1,1,1,1,1,1,1,1,1,1,1,1,1,1,1,1,1,1,1,1,1,1,1,1,1,1,1,1,1,1,1,1,1,1,1,1,1,1,1,1,1,1,1,1,1,1,1,1,1,1,1,1,1,1,1,1,1,1,1,1,1,1,1,1,1
0,0,0,0,0,0,0,0,0,0,0,0,0,0,0,0,0,0,0,0,0,0,0,0,0,0,0,0,0,0,0,0,0,0,0,0,0,0,0,0,0,0,0,0,0,0,0,0,0,0,0,0,0,0,0,0,0,0,0,0,0,0,0,0,0,0,0,0,0,0,0,0,0,0,0,0,0,0,0,0,0,0,0,0,0,0,0,0,0,0,0,0,0,0,0,0,0,0,0,0,0,0,0,0,0,0,0,0,0,0,0,0,0,0,0,0,0,0,0,0,0,0,0,0,0,0,0,0,0,0,0,0,0,0,0,0,0,0,0,0,0,0,0,0,0,0,0,0,0,0,0,0,0,0,0,0,0,0,0,0,0,0,0,0,0,0,0,0,0,0,0,0,0,0,0,0,0,0,0,0,0,0,0,0,0,0,0,0,0,0,0,0,0,0,0,0,0,0,0,0,0,0,0,0,0,0,0,0,0,0,0,0,0,0,0,0,0,0,0,0,0,0,0,0,0,0,0,0,0,0,0,0,0,0,0,0,0,0,0,0,0,0,0,0,0,0,0,0,0,0,0,0,0,0,0,0,0,0,0,0,0,0,0,0,0,0,0,0,0,0,0,0,0,0,0,0,0,0,0,0,0,0,0,0,0,0,0,0,0,0,0,0,0,0,0,0,0,0,0,0,0,0,0,0,0,0,0,0,0,0,0,0,0,0,0,0,0,0,0,0,0,0,0,0,0,0,0,0,0,0,0,0,0,0,0,0,0,0,0,0,0,0,0,0,0,0,0,0,0,0,0,0,0,0,0,0,0,0,0,0,0,0,0,0,0,0,0,0,0,0,0,0,0,0,0,0,0,0,0,0,0,0,0,0,0,0,0,0,0,0,0,0,0,0,0,0,0,0,0,0,0,0,0,0,0,0,0,0,0,0,0,0,0,0,0,0,0,0,0,0,0,0,0,0,0,0,0,0,0,0,0,0,0,0,0,0,0,0,0,0,0,0,0,0,0,0,0,0,0,0,0,0,0,0,0,0,0,0,0,0,0,0,0,0,0,0,0,0,0,0,0,0,0,0,0,0,0,0,0,0,0,0,0,0,0,0,0,0,0,0,0,0,0,0,0,0,0,0,0,0,0,0,0,0,0,0,0,0,0,0,0,0,0,0,0,0,0,0,0,0,0,0,0,0,0,0,0,0,0,0,0,0,0,0,0,0,0,0,0,0,0,0,0,0,0,0,0,0,0,0,0,0,0,0,0,0,0,0,0,0,0,0,0,0,0,0,0,0,0,0,0,0,0,0,0,0,0,0,0,0,0,0,0,0,0,0,0,0,0,0,0,0,0,0,0,0,0,0,0,0,0,0,0,0,0,0,0,0,0,0,0,0,0,0,0,0
