4,82,83,84,85,86,87,88,89,90,91,92,93,94,95,96,97,98,99,100,101,102,103,104,105,106,107,108,109,110,111,112,113,114,115,116,117,118,119,120,121,122,123,124,125,126,127,128,129,130,131,132,133,134,135,136,137,138,139,140,141,142,143,144,145,146,147,148,149,150,151,152,153,154,155,156,157,158,1,5,6,7,8,9,10,11,12,13,14,15,16,17,18,19,20,21,22,23,24,25,26,27,28,29,30,31,32,33,34,35,36,37,38,39,40,41,42,43,44,45,46,47,48,49,50,51,52,53,54,55,56,57,58,59,60,61,62,63,64,65,66,67,68,69,70,71,72,73,74,75,76,77,78,79,80,81,2,159,160,161,162,163,164,165,166,167,168,169,170,171,172,173,174,175,176,177,178,179,180,181,182,183,184,185,186,187,188,189,190,191,192,193,194,195,196,197,198,199,200,201,202,203,204,205,206,207,208,209,210,211,212,213,214,215,216,217,218,219,220,221,222,223,224,225,226,227,228,229,230,231,232,233,234,235,3,236,237,238,239,240,241,242,243,244,245,246,247,248,249,250,251,252,253,254,255,256,257,258,259,260,261,262,263,264,265,266,267,268,269,270,271,272,273,274,275,276,277,278,279,280,281,282,283,284,285,286,287,288,289,290,291,292,293,294,295,296,297,298,299,300,301,302,303,304,305,306,307,308,309,310,311,312
82,83,84,85,86,87,88,89,90,91,92,93,94,95,96,97,98,99,100,101,102,103,104,105,106,107,108,109,110,111,112,113,114,115,116,117,118,119,120,121,122,123,124,125,126,127,128,129,130,131,132,133,134,135,136,137,138,139,140,141,142,143,144,145,146,147,148,149,150,151,152,153,154,155,156,157,158,1,5,6,7,8,9,10,11,12,13,14,15,16,17,18,19,20,21,22,23,24,25,26,27,28,29,30,31,32,33,34,35,36,37,38,39,40,41,42,43,44,45,46,47,48,49,50,51,52,53,54,55,56,57,58,59,60,61,62,63,64,65,66,67,68,69,70,71,72,73,74,75,76,77,78,79,80,81,2,159,160,161,162,163,164,165,166,167,168,169,170,171,172,173,174,175,176,177,178,179,180,181,182,183,184,185,186,187,188,189,190,191,192,193,194,195,196,197,198,199,200,201,202,203,204,205,206,207,208,209,210,211,212,213,214,215,216,217,218,219,220,221,222,223,224,225,226,227,228,229,230,231,232,233,234,235,3,236,237,238,239,240,241,242,243,244,245,246,247,248,249,250,251,252,253,254,255,256,257,258,259,260,261,262,263,264,265,266,267,268,269,270,271,272,273,274,275,276,277,278,279,280,281,282,283,284,285,286,287,288,289,290,291,292,293,294,295,296,297,298,299,300,301,302,303,304,305,306,307,308,309,310,311,312,4
0,0.0201420841615342,0.0402841683230685,0.0604262524846027,0.080568336646137,0.100710420807671,0.120852504969205,0.140948968791344,0.161091052952878,0.181233137114412,0.201375221275946,0.221517305437481,0.241659389599015,0.261800218328242,0.281941052629218,0.302083136790752,0.322225220952286,0.34236730511382,0.362509389275354,0.382651473436888,0.402747937258731,0.422890021420265,0.443032105581799,0.463174189743334,0.483316273904868,0.503458358066402,0.5235991895257,0.543740023770928,0.563882107932462,0.584024192093996,0.604166276255531,0.624308360417065,0.644450444578599,0.664546908400294,0.684688992561828,0.704831076723362,0.724973160884896,0.745115245046431,0.765257329207965,0.785398163397446,0.805538997586928,0.825681081748462,0.845823165909996,0.865965250071531,0.886107334233065,0.906249418394599,0.926345882216294,0.946487966377828,0.966630050539362,0.986772134700896,1.00691421886243,1.02705630302396,1.04719713726919,1.06733796872849,1.08748005289002,1.10762213705156,1.12776422121309,1.14790630537463,1.16804838953616,1.188144853358,1.20828693751954,1.22842902168107,1.24857110584261,1.26871319000414,1.28885527416567,1.30899610846665,1.32913693719588,1.34927902135741,1.36942110551895,1.38956318968048,1.40970527384202,1.42984735800355,1.44994382182569,1.47008590598722,1.49022799014876,1.51037007431029,1.53051215847183,1.55065424263336,1.5707963267949,1.59093843787465,1.6110805489544,1.63122266003416,1.65136477111391,1.67150688219366,1.69164899296932,1.71174529454026,1.73188740561541,1.75202951669516,1.77217162777491,1.79231373885467,1.81245584993442,1.83259660901018,1.85273737408627,1.87287948516603,1.89302159624578,1.91316370732553,1.93330581840529,1.95344792924084,1.97354423081124,1.99368634182648,2.01382845290624,2.03397056398599,2.05411267506574,2.0742547861455,2.09439554816132,2.11453631317737,2.13467842425713,2.15482053533688,2.17496264641663,2.19510475749639,2.21524686839183,2.23534316996197,2.25548528091731,2.27562739199707,2.29576950307682,2.31591161415657,2.33605372523633,2.35619449019234,2.37633525514836,2.39647736622812,2.41661947730787,2.43676158838762,2.45690369946738,2.47704581042272,2.49714211199285,2.5172842228883,2.53742633396805,2.55756844504781,2.57771055612756,2.59785266720731,2.61799343222337,2.63813419423919,2.65827630531894,2.6784184163987,2.69856052747845,2.7187026385582,2.73884474957345,2.75894105114385,2.7790831619794,2.79922527305915,2.81936738413891,2.83950949521866,2.85965160629841,2.8797923713745,2.89993313045027,2.92007524153002,2.94021735260977,2.96035946368953,2.98050157476928,3.00064368584443,3.02073998741537,3.04088209819102,3.06102420927078,3.08116632035053,3.10130843143029,3.12145054251004,3.14159265358979,3.16173476466955,3.1818768757493,3.20201898682905,3.22216109790881,3.24230320898856,3.26244531976422,3.28254162133516,3.3026837324103,3.32282584349006,3.34296795456981,3.36311006564956,3.38325217672932,3.40339293580508,3.42353370088117,3.44367581196092,3.46381792304068,3.48396003412043,3.50410214520018,3.52424425603573,3.54434055760614,3.56448266862138,3.58462477970113,3.60476689078089,3.62490900186064,3.64505111294039,3.66519187495622,3.68533263997227,3.70547475105202,3.72561686213178,3.74575897321153,3.76590108429128,3.78604319518673,3.80613949675687,3.82628160771221,3.84642371879196,3.86656582987172,3.88670794095147,3.90685005203122,3.92699081698724,3.94713158194326,3.96727369302301,3.98741580410277,4.00755791518252,4.02770002626227,4.04784213721761,4.06793843878775,4.0880805496832,4.10822266076295,4.1283647718427,4.14850688292246,4.16864899400221,4.18878975901826,4.20893052103409,4.22907263211384,4.24921474319359,4.26935685427335,4.2894989653531,4.30964107636834,4.32973737793875,4.3498794887743,4.37002159985405,4.3901637109338,4.41030582201356,4.43044793309331,4.4505886981694,4.47072945724516,4.49087156832492,4.51101367940467,4.53115579048442,4.55129790156418,4.57144001263932,4.59153631421026,4.61167842498592,4.63182053606567,4.65196264714543,4.67210475822518,4.69224686930494,4.71238898038469,4.73253109146444,4.7526732025442,4.77281531362395,4.7929574247037,4.81309953578346,4.83324164655911,4.85333794813005,4.8734800592052,4.89362217028495,4.91376428136471,4.93390639244446,4.95404850352421,4.97418926259998,4.99433002767607,5.01447213875582,5.03461424983557,5.05475636091533,5.07489847199508,5.09504058283063,5.11513688440103,5.13527899541628,5.15542110649603,5.17556321757578,5.19570532865554,5.21584743973529,5.23598820175112,5.25612896676717,5.27627107784692,5.29641318892667,5.31655530000643,5.33669741108618,5.35683952198163,5.37693582355176,5.3970779345071,5.41722004558686,5.43736215666661,5.45750426774637,5.47764637882612,5.49778714378214,5.51792790873815,5.53807001981791,5.55821213089766,5.57835424197742,5.59849635305717,5.61863846401251,5.63873476558265,5.65887687647809,5.67901898755785,5.6991610986376,5.71930320971735,5.73944532079711,5.75958608581316,5.77972684782898,5.79986895890874,5.82001106998849,5.84015318106824,5.860295292148,5.88043740316324,5.90053370473364,5.92067581556919,5.94081792664895,5.9609600377287,5.98110214880845,6.00124425988821,6.0213850249643,6.04152578404006,6.06166789511981,6.08181000619957,6.10195211727932,6.12209422835908,6.14223633943422,6.16233264100516,6.18247475178082,6.20261686286057,6.22275897394033,6.24290108502008,6.26304319609983
0.0201420841615342,0.0402841683230685,0.0604262524846027,0.080568336646137,0.100710420807671,0.120852504969205,0.140948968791344,0.161091052952878,0.181233137114412,0.201375221275946,0.221517305437481,0.241659389599015,0.261800218328242,0.281941052629218,0.302083136790752,0.322225220952286,0.34236730511382,0.362509389275354,0.382651473436888,0.402747937258731,0.422890021420265,0.443032105581799,0.463174189743334,0.483316273904868,0.503458358066402,0.5235991895257,0.543740023770928,0.563882107932462,0.584024192093996,0.604166276255531,0.624308360417065,0.644450444578599,0.664546908400294,0.684688992561828,0.704831076723362,0.724973160884896,0.745115245046431,0.765257329207965,0.785398163397446,0.805538997586928,0.825681081748462,0.845823165909996,0.865965250071531,0.886107334233065,0.906249418394599,0.926345882216294,0.946487966377828,0.966630050539362,0.986772134700896,1.00691421886243,1.02705630302396,1.04719713726919,1.06733796872849,1.08748005289002,1.10762213705156,1.12776422121309,1.14790630537463,1.16804838953616,1.188144853358,1.20828693751954,1.22842902168107,1.24857110584261,1.26871319000414,1.28885527416567,1.30899610846665,1.32913693719588,1.34927902135741,1.36942110551895,1.38956318968048,1.40970527384202,1.42984735800355,1.44994382182569,1.47008590598722,1.49022799014876,1.51037007431029,1.53051215847183,1.55065424263336,1.5707963267949,1.59093843787465,1.6110805489544,1.63122266003416,1.65136477111391,1.67150688219366,1.69164899296932,1.71174529454026,1.73188740561541,1.75202951669516,1.77217162777491,1.79231373885467,1.81245584993442,1.83259660901018,1.85273737408627,1.87287948516603,1.89302159624578,1.91316370732553,1.93330581840529,1.95344792924084,1.97354423081124,1.99368634182648,2.01382845290624,2.03397056398599,2.05411267506574,2.0742547861455,2.09439554816132,2.11453631317737,2.13467842425713,2.15482053533688,2.17496264641663,2.19510475749639,2.21524686839183,2.23534316996197,2.25548528091731,2.27562739199707,2.29576950307682,2.31591161415657,2.33605372523633,2.35619449019234,2.37633525514836,2.39647736622812,2.41661947730787,2.43676158838762,2.45690369946738,2.47704581042272,2.49714211199285,2.5172842228883,2.53742633396805,2.55756844504781,2.57771055612756,2.59785266720731,2.61799343222337,2.63813419423919,2.65827630531894,2.6784184163987,2.69856052747845,2.7187026385582,2.73884474957345,2.75894105114385,2.7790831619794,2.79922527305915,2.81936738413891,2.83950949521866,2.85965160629841,2.8797923713745,2.89993313045027,2.92007524153002,2.94021735260977,2.96035946368953,2.98050157476928,3.00064368584443,3.02073998741537,3.04088209819102,3.06102420927078,3.08116632035053,3.10130843143029,3.12145054251004,3.14159265358979,3.16173476466955,3.1818768757493,3.20201898682905,3.22216109790881,3.24230320898856,3.26244531976422,3.28254162133516,3.3026837324103,3.32282584349006,3.34296795456981,3.36311006564956,3.38325217672932,3.40339293580508,3.42353370088117,3.44367581196092,3.46381792304068,3.48396003412043,3.50410214520018,3.52424425603573,3.54434055760614,3.56448266862138,3.58462477970113,3.60476689078089,3.62490900186064,3.64505111294039,3.66519187495622,3.68533263997227,3.70547475105202,3.72561686213178,3.74575897321153,3.76590108429128,3.78604319518673,3.80613949675687,3.82628160771221,3.84642371879196,3.86656582987172,3.88670794095147,3.90685005203122,3.92699081698724,3.94713158194326,3.96727369302301,3.98741580410277,4.00755791518252,4.02770002626227,4.04784213721761,4.06793843878775,4.0880805496832,4.10822266076295,4.1283647718427,4.14850688292246,4.16864899400221,4.18878975901826,4.20893052103409,4.22907263211384,4.24921474319359,4.26935685427335,4.2894989653531,4.30964107636834,4.32973737793875,4.3498794887743,4.37002159985405,4.3901637109338,4.41030582201356,4.43044793309331,4.4505886981694,4.47072945724516,4.49087156832492,4.51101367940467,4.53115579048442,4.55129790156418,4.57144001263932,4.59153631421026,4.61167842498592,4.63182053606567,4.65196264714543,4.67210475822518,4.69224686930494,4.71238898038469,4.73253109146444,4.7526732025442,4.77281531362395,4.7929574247037,4.81309953578346,4.83324164655911,4.85333794813005,4.8734800592052,4.89362217028495,4.91376428136471,4.93390639244446,4.95404850352421,4.97418926259998,4.99433002767607,5.01447213875582,5.03461424983557,5.05475636091533,5.07489847199508,5.09504058283063,5.11513688440103,5.13527899541628,5.15542110649603,5.17556321757578,5.19570532865554,5.21584743973529,5.23598820175112,5.25612896676717,5.27627107784692,5.29641318892667,5.31655530000643,5.33669741108618,5.35683952198163,5.37693582355176,5.3970779345071,5.41722004558686,5.43736215666661,5.45750426774637,5.47764637882612,5.49778714378214,5.51792790873815,5.53807001981791,5.55821213089766,5.57835424197742,5.59849635305717,5.61863846401251,5.63873476558265,5.65887687647809,5.67901898755785,5.6991610986376,5.71930320971735,5.73944532079711,5.75958608581316,5.77972684782898,5.79986895890874,5.82001106998849,5.84015318106824,5.860295292148,5.88043740316324,5.90053370473364,5.92067581556919,5.94081792664895,5.9609600377287,5.98110214880845,6.00124425988821,6.0213850249643,6.04152578404006,6.06166789511981,6.08181000619957,6.10195211727932,6.12209422835908,6.14223633943422,6.16233264100516,6.18247475178082,6.20261686286057,6.22275897394033,6.24290108502008,6.26304319609983,6.28318530717959
1,1,1,1,1,1,1,1,1,1,1,1,1,1,1,1,1,1,1,1,1,1,1,1,1,1,1,1,1,1,1,1,1,1,1,1,1,1,1,1,1,1,1,1,1,1,1,1,1,1,1,1,1,1,1,1,1,1,1,1,1,1,1,1,1,1,1,1,1,1,1,1,1,1,1,1,1,1,2,2,2,2,2,2,2,2,2,2,2,2,2,2,2,2,2,2,2,2,2,2,2,2,2,2,2,2,2,2,2,2,2,2,2,2,2,2,2,2,2,2,2,2,2,2,2,2,2,2,2,2,2,2,2,2,2,2,2,2,2,2,2,2,2,2,2,2,2,2,2,2,2,2,2,2,2,2,3,3,3,3,3,3,3,3,3,3,3,3,3,3,3,3,3,3,3,3,3,3,3,3,3,3,3,3,3,3,3,3,3,3,3,3,3,3,3,3,3,3,3,3,3,3,3,3,3,3,3,3,3,3,3,3,3,3,3,3,3,3,3,3,3,3,3,3,3,3,3,3,3,3,3,3,3,3,4,4,4,4,4,4,4,4,4,4,4,4,4,4,4,4,4,4,4,4,4,4,4,4,4,4,4,4,4,4,4,4,4,4,4,4,4,4,4,4,4,4,4,4,4,4,4,4,4,4,4,4,4,4,4,4,4,4,4,4,4,4,4,4,4,4,4,4,4,4,4,4,4,4,4,4,4,4
1,1,1,1,1,1,1,1,1,1,1,1,1,1,1,1,1,1,1,1,1,1,1,1,1,1,1,1,1,1,1,1,1,1,1,1,1,1,1,1,1,1,1,1,1,1,1,1,1,1,1,1,1,1,1,1,1,1,1,1,1,1,1,1,1,1,1,1,1,1,1,1,1,1,1,1,1,1,1,1,1,1,1,1,1,1,1,1,1,1,1,1,1,1,1,1,1,1,1,1,1,1,1,1,1,1,1,1,1,1,1,1,1,1,1,1,1,1,1,1,1,1,1,1,1,1,1,1,1,1,1,1,1,1,1,1,1,1,1,1,1,1,1,1,1,1,1,1,1,1,1,1,1,1,1,1,1,1,1,1,1,1,1,1,1,1,1,1,1,1,1,1,1,1,1,1,1,1,1,1,1,1,1,1,1,1,1,1,1,1,1,1,1,1,1,1,1,1,1,1,1,1,1,1,1,1,1,1,1,1,1,1,1,1,1,1,1,1,1,1,1,1,1,1,1,1,1,1,1,1,1,1,1,1,1,1,1,1,1,1,1,1,1,1,1,1,1,1,1,1,1,1,1,1,1,1,1,1,1,1,1,1,1,1,1,1,1,1,1,1,1,1,1,1,1,1,1,1,1,1,1,1,1,1,1,1,1,1,1,1,1,1,1,1,1,1,1,1,1,1,1,1,1,1,1,1,1,1,1,1,1,1
0,0,0,0,0,0,0,0,0,0,0,0,0,0,0,0,0,0,0,0,0,0,0,0,0,0,0,0,0,0,0,0,0,0,0,0,0,0,0,0,0,0,0,0,0,0,0,0,0,0,0,0,0,0,0,0,0,0,0,0,0,0,0,0,0,0,0,0,0,0,0,0,0,0,0,0,0,0,0,0,0,0,0,0,0,0,0,0,0,0,0,0,0,0,0,0,0,0,0,0,0,0,0,0,0,0,0,0,0,0,0,0,0,0,0,0,0,0,0,0,0,0,0,0,0,0,0,0,0,0,0,0,0,0,0,0,0,0,0,0,0,0,0,0,0,0,0,0,0,0,0,0,0,0,0,0,0,0,0,0,0,0,0,0,0,0,0,0,0,0,0,0,0,0,0,0,0,0,0,0,0,0,0,0,0,0,0,0,0,0,0,0,0,0,0,0,0,0,0,0,0,0,0,0,0,0,0,0,0,0,0,0,0,0,0,0,0,0,0,0,0,0,0,0,0,0,0,0,0,0,0,0,0,0,0,0,0,0,0,0,0,0,0,0,0,0,0,0,0,0,0,0,0,0,0,0,0,0,0,0,0,0,0,0,0,0,0,0,0,0,0,0,0,0,0,0,0,0,0,0,0,0,0,0,0,0,0,0,0,0,0,0,0,0,0,0,0,0,0,0,0,0,0,0,0,0,0,0,0,0,0,0
