12,202,203,204,205,206,207,208,209,210,211,212,213,214,215,216,217,218,219,220,221,222,223,224,225,226,227,228,229,230,231,232,233,234,235,236,237,238,239,240,241,242,243,244,245,246,247,248,249,250,251,252,253,254,255,256,257,258,259,260,261,262,263,264,265,266,267,268,269,270,271,272,273,274,275,276,277,278,279,280,281,282,283,284,285,286,287,288,289,290,291,292,293,294,295,296,297,298,299,300,301,1,28,29,30,31,32,33,34,35,36,37,38,39,40,41,42,2,13,14,15,16,17,18,19,20,21,22,23,24,25,26,27,3,43,44,45,46,47,48,49,50,51,52,53,54,55,56,57,58,59,60,61,62,63,64,65,66,67,68,69,70,71,72,73,74,75,76,77,78,79,80,81,82,83,84,85,86,87,88,89,90,91,92,93,94,95,96,97,98,99,100,101,102,103,104,105,106,107,108,109,110,111,112,113,114,115,116,117,118,119,120,121,122,123,124,125,126,127,128,129,130,131,132,133,134,135,136,137,138,139,140,141,142,143,144,145,146,147,148,149,150,151,152,153,154,155,156,157,158,159,160,161,162,163,164,165,166,167,168,169,170,171,172,173,174,175,176,177,178,179,180,181,182,183,184,185,186,187,188,189,190,191,192,193,194,195,196,197,198,199,200,201,4,591,592,593,594,595,596,597,598,599,600,601,602,603,604,605,5,606,607,608,609,610,611,612,613,614,615,616,617,618,619,620,6,491,492,493,494,495,496,497,498,499,500,501,502,503,504,505,506,507,508,509,510,511,512,513,514,515,516,517,518,519,520,521,522,523,524,525,526,527,528,529,530,531,532,533,534,535,536,537,538,539,540,541,542,543,544,545,546,547,548,549,550,551,552,553,554,555,556,557,558,559,560,561,562,563,564,565,566,567,568,569,570,571,572,573,574,575,576,577,578,579,580,581,582,583,584,585,586,587,588,589,590,7,636,637,638,639,640,641,642,643,644,645,646,647,648,649,650,8,621,622,623,624,625,626,627,628,629,630,631,632,633,634,635,9,332,333,334,335,336,337,338,339,340,341,342,343,344,345,346,347,348,349,350,351,352,353,354,355,356,357,358,359,360,361,362,363,364,365,366,367,368,369,370,371,372,373,374,375,376,377,378,379,380,381,382,383,384,385,386,387,388,389,390,391,392,393,394,395,396,397,398,399,400,401,402,403,404,405,406,407,408,409,410,411,412,413,414,415,416,417,418,419,420,421,422,423,424,425,426,427,428,429,430,431,432,433,434,435,436,437,438,439,440,441,442,443,444,445,446,447,448,449,450,451,452,453,454,455,456,457,458,459,460,461,462,463,464,465,466,467,468,469,470,471,472,473,474,475,476,477,478,479,480,481,482,483,484,485,486,487,488,489,490,10,302,303,304,305,306,307,308,309,310,311,312,313,314,315,316,11,317,318,319,320,321,322,323,324,325,326,327,328,329,330,331
202,203,204,205,206,207,208,209,210,211,212,213,214,215,216,217,218,219,220,221,222,223,224,225,226,227,228,229,230,231,232,233,234,235,236,237,238,239,240,241,242,243,244,245,246,247,248,249,250,251,252,253,254,255,256,257,258,259,260,261,262,263,264,265,266,267,268,269,270,271,272,273,274,275,276,277,278,279,280,281,282,283,284,285,286,287,288,289,290,291,292,293,294,295,296,297,298,299,300,301,1,28,29,30,31,32,33,34,35,36,37,38,39,40,41,42,2,13,14,15,16,17,18,19,20,21,22,23,24,25,26,27,3,43,44,45,46,47,48,49,50,51,52,53,54,55,56,57,58,59,60,61,62,63,64,65,66,67,68,69,70,71,72,73,74,75,76,77,78,79,80,81,82,83,84,85,86,87,88,89,90,91,92,93,94,95,96,97,98,99,100,101,102,103,104,105,106,107,108,109,110,111,112,113,114,115,116,117,118,119,120,121,122,123,124,125,126,127,128,129,130,131,132,133,134,135,136,137,138,139,140,141,142,143,144,145,146,147,148,149,150,151,152,153,154,155,156,157,158,159,160,161,162,163,164,165,166,167,168,169,170,171,172,173,174,175,176,177,178,179,180,181,182,183,184,185,186,187,188,189,190,191,192,193,194,195,196,197,198,199,200,201,4,591,592,593,594,595,596,597,598,599,600,601,602,603,604,605,5,606,607,608,609,610,611,612,613,614,615,616,617,618,619,620,6,491,492,493,494,495,496,497,498,499,500,501,502,503,504,505,506,507,508,509,510,511,512,513,514,515,516,517,518,519,520,521,522,523,524,525,526,527,528,529,530,531,532,533,534,535,536,537,538,539,540,541,542,543,544,545,546,547,548,549,550,551,552,553,554,555,556,557,558,559,560,561,562,563,564,565,566,567,568,569,570,571,572,573,574,575,576,577,578,579,580,581,582,583,584,585,586,587,588,589,590,7,636,637,638,639,640,641,642,643,644,645,646,647,648,649,650,8,621,622,623,624,625,626,627,628,629,630,631,632,633,634,635,9,332,333,334,335,336,337,338,339,340,341,342,343,344,345,346,347,348,349,350,351,352,353,354,355,356,357,358,359,360,361,362,363,364,365,366,367,368,369,370,371,372,373,374,375,376,377,378,379,380,381,382,383,384,385,386,387,388,389,390,391,392,393,394,395,396,397,398,399,400,401,402,403,404,405,406,407,408,409,410,411,412,413,414,415,416,417,418,419,420,421,422,423,424,425,426,427,428,429,430,431,432,433,434,435,436,437,438,439,440,441,442,443,444,445,446,447,448,449,450,451,452,453,454,455,456,457,458,459,460,461,462,463,464,465,466,467,468,469,470,471,472,473,474,475,476,477,478,479,480,481,482,483,484,485,486,487,488,489,490,10,302,303,304,305,306,307,308,309,310,311,312,313,314,315,316,11,317,318,319,320,321,322,323,324,325,326,327,328,329,330,331,12
0.14142135623731,0.148521923440531,0.155622490643753,0.162723057846974,0.169823625050196,0.176924192253417,0.184024759456639,0.191125326659861,0.198225893863082,0.205326461066304,0.212427028269525,0.219527595472747,0.226628162675969,0.23372872987919,0.240829297082412,0.247929864285634,0.255030431488855,0.262130998692077,0.269231565895298,0.27633213309852,0.283432700301742,0.290533267504963,0.297633834708185,0.304734401911406,0.311834969114628,0.31893553631785,0.326036103521071,0.333136670724293,0.340237237927514,0.347337805130736,0.354438372333958,0.361538939537179,0.368639506740401,0.375740073943623,0.382840641146844,0.389941208350066,0.397041775553287,0.404142342756509,0.41124290995973,0.418343477162952,0.425444044366174,0.432544611569395,0.439645178772617,0.446745745975838,0.45384631317906,0.460946880382282,0.468047447585503,0.475148014788725,0.482248581991947,0.489349149195168,0.49644971639839,0.503550283601611,0.510650850804833,0.517751418008054,0.524851985211276,0.531952552414498,0.539053119617719,0.546153686820941,0.553254254024163,0.560354821227384,0.567455388430606,0.574555955633827,0.581656522837049,0.58875709004027,0.595857657243492,0.602958224446714,0.610058791649935,0.617159358853157,0.624259926056378,0.6313604932596,0.638461060462821,0.645561627666043,0.652662194869264,0.659762762072486,0.666863329275707,0.673963896478929,0.68106446368215,0.688165030885372,0.695265598088594,0.702366165291815,0.709466732495037,0.716567299698258,0.72366786690148,0.730768434104702,0.737869001307923,0.744969568511145,0.752070135714367,0.759170702917588,0.76627127012081,0.773371837324031,0.780472404527253,0.787572971730474,0.794673538933696,0.801774106136918,0.808874673340139,0.815975240543361,0.823075807746583,0.830176374949804,0.837276942153026,0.844377509356247,0.851478076559469,0.85857864376269,0.867419554854849,0.876256412016423,0.885093268947093,0.893934048492683,0.902774828140895,0.911611685225499,0.920448542233134,0.929289321881345,0.938130101529556,0.946966958537192,0.955803815621795,0.964644595270007,0.973485374815597,0.982322231746268,0.991159088907842,1,1.00625146818513,1.01250006980846,1.01874867126851,1.02500004643617,1.0312514216764,1.0375000232453,1.04374862475977,1.05,1.05625137524023,1.0624999767547,1.0687485783236,1.07499995356383,1.08125132873149,1.08749993019154,1.09374853181487,1.1,1.105,1.11,1.115,1.12,1.125,1.13,1.135,1.14,1.145,1.15,1.155,1.16,1.165,1.17,1.175,1.18,1.185,1.19,1.195,1.2,1.205,1.21,1.215,1.22,1.225,1.23,1.235,1.24,1.245,1.25,1.255,1.26,1.265,1.27,1.275,1.28,1.285,1.29,1.295,1.3,1.305,1.31,1.315,1.32,1.325,1.33,1.335,1.34,1.345,1.35,1.355,1.36,1.365,1.37,1.375,1.38,1.385,1.39,1.395,1.4,1.405,1.41,1.415,1.42,1.425,1.43,1.435,1.44,1.445,1.45,1.455,1.46,1.465,1.47,1.475,1.48,1.485,1.49,1.495,1.5,1.505,1.51,1.515,1.52,1.525,1.53,1.535,1.54,1.545,1.55,1.555,1.56,1.565,1.57,1.575,1.58,1.585,1.59,1.595,1.6,1.605,1.61,1.615,1.62,1.625,1.63,1.635,1.64,1.645,1.65,1.655,1.66,1.665,1.67,1.675,1.68,1.685,1.69,1.695,1.7,1.705,1.71,1.715,1.72,1.725,1.73,1.735,1.74,1.745,1.75,1.755,1.76,1.765,1.77,1.775,1.78,1.785,1.79,1.795,1.8,1.805,1.81,1.815,1.82,1.825,1.83,1.835,1.84,1.845,1.85,1.855,1.86,1.865,1.87,1.875,1.88,1.885,1.89,1.895,1.9,1.90625146818513,1.91250006980846,1.91874867126851,1.92500004643617,1.9312514216764,1.9375000232453,1.94374862475977,1.95,1.95625137524023,1.9624999767547,1.9687485783236,1.97499995356383,1.98125132873149,1.98749993019154,1.99374853181487,2,2.00884091109216,2.01767776825373,2.0265146251844,2.03535540472999,2.04419618437821,2.05303304146281,2.06186989847044,2.07071067811865,2.07955145776687,2.0883883147745,2.0972251718591,2.10606595150732,2.11490673105291,2.12374358798358,2.13258044514515,2.14142135623731,2.14852192344053,2.15562249064375,2.16272305784697,2.1698236250502,2.17692419225342,2.18402475945664,2.19112532665986,2.19822589386308,2.2053264610663,2.21242702826953,2.21952759547275,2.22662816267597,2.23372872987919,2.24082929708241,2.24792986428563,2.25503043148886,2.26213099869208,2.2692315658953,2.27633213309852,2.28343270030174,2.29053326750496,2.29763383470819,2.30473440191141,2.31183496911463,2.31893553631785,2.32603610352107,2.33313667072429,2.34023723792751,2.34733780513074,2.35443837233396,2.36153893953718,2.3686395067404,2.37574007394362,2.38284064114684,2.38994120835007,2.39704177555329,2.40414234275651,2.41124290995973,2.41834347716295,2.42544404436617,2.4325446115694,2.43964517877262,2.44674574597584,2.45384631317906,2.46094688038228,2.4680474475855,2.47514801478872,2.48224858199195,2.48934914919517,2.49644971639839,2.50355028360161,2.51065085080483,2.51775141800805,2.52485198521128,2.5319525524145,2.53905311961772,2.54615368682094,2.55325425402416,2.56035482122738,2.56745538843061,2.57455595563383,2.58165652283705,2.58875709004027,2.59585765724349,2.60295822444671,2.61005879164993,2.61715935885316,2.62425992605638,2.6313604932596,2.63846106046282,2.64556162766604,2.65266219486926,2.65976276207249,2.66686332927571,2.67396389647893,2.68106446368215,2.68816503088537,2.69526559808859,2.70236616529182,2.70946673249504,2.71656729969826,2.72366786690148,2.7307684341047,2.73786900130792,2.74496956851115,2.75207013571437,2.75917070291759,2.76627127012081,2.77337183732403,2.78047240452725,2.78757297173047,2.7946735389337,2.80177410613692,2.80887467334014,2.81597524054336,2.82307580774658,2.8301763749498,2.83727694215303,2.84437750935625,2.85147807655947,2.85857864376269,2.86741955485485,2.87625641201642,2.88509326894709,2.89393404849268,2.90277482814089,2.9116116852255,2.92044854223313,2.92928932188134,2.93813010152956,2.94696695853719,2.9558038156218,2.96464459527001,2.9734853748156,2.98232223174627,2.99115908890784,3,3.00625146818513,3.01250006980846,3.01874867126851,3.02500004643617,3.0312514216764,3.0375000232453,3.04374862475977,3.05,3.05625137524023,3.0624999767547,3.0687485783236,3.07499995356383,3.08125132873149,3.08749993019154,3.09374853181487,3.1,3.105,3.11,3.115,3.12,3.125,3.13,3.135,3.14,3.145,3.15,3.155,3.16,3.165,3.17,3.175,3.18,3.185,3.19,3.195,3.2,3.205,3.21,3.215,3.22,3.225,3.23,3.235,3.24,3.245,3.25,3.255,3.26,3.265,3.27,3.275,3.28,3.285,3.29,3.295,3.3,3.305,3.31,3.315,3.32,3.325,3.33,3.335,3.34,3.345,3.35,3.355,3.36,3.365,3.37,3.375,3.38,3.385,3.39,3.395,3.4,3.405,3.41,3.415,3.42,3.425,3.43,3.435,3.44,3.445,3.45,3.455,3.46,3.465,3.47,3.475,3.48,3.485,3.49,3.495,3.5,3.505,3.51,3.515,3.52,3.525,3.53,3.535,3.54,3.545,3.55,3.555,3.56,3.565,3.57,3.575,3.58,3.585,3.59,3.595,3.6,3.605,3.61,3.615,3.62,3.625,3.63,3.635,3.64,3.645,3.65,3.655,3.66,3.665,3.67,3.675,3.68,3.685,3.69,3.695,3.7,3.705,3.71,3.715,3.72,3.725,3.73,3.735,3.74,3.745,3.75,3.755,3.76,3.765,3.77,3.775,3.78,3.785,3.79,3.795,3.8,3.805,3.81,3.815,3.82,3.825,3.83,3.835,3.84,3.845,3.85,3.855,3.86,3.865,3.87,3.875,3.88,3.885,3.89,3.895,3.9,3.90625146818513,3.91250006980846,3.91874867126851,3.92500004643617,3.9312514216764,3.9375000232453,3.94374862475977,3.95,3.95625137524023,3.9624999767547,3.9687485783236,3.97499995356383,3.98125132873149,3.98749993019154,3.99374853181487,4,4.00884091109216,4.01767776825373,4.0265146251844,4.03535540472999,4.0441961843782,4.05303304146281,4.06186989847044,4.07071067811865,4.07955145776686,4.0883883147745,4.0972251718591,4.10606595150732,4.11490673105291,4.12374358798358,4.13258044514515
0.148521923440531,0.155622490643753,0.162723057846974,0.169823625050196,0.176924192253417,0.184024759456639,0.191125326659861,0.198225893863082,0.205326461066304,0.212427028269525,0.219527595472747,0.226628162675969,0.23372872987919,0.240829297082412,0.247929864285634,0.255030431488855,0.262130998692077,0.269231565895298,0.27633213309852,0.283432700301742,0.290533267504963,0.297633834708185,0.304734401911406,0.311834969114628,0.31893553631785,0.326036103521071,0.333136670724293,0.340237237927514,0.347337805130736,0.354438372333958,0.361538939537179,0.368639506740401,0.375740073943623,0.382840641146844,0.389941208350066,0.397041775553287,0.404142342756509,0.41124290995973,0.418343477162952,0.425444044366174,0.432544611569395,0.439645178772617,0.446745745975838,0.45384631317906,0.460946880382282,0.468047447585503,0.475148014788725,0.482248581991947,0.489349149195168,0.49644971639839,0.503550283601611,0.510650850804833,0.517751418008054,0.524851985211276,0.531952552414498,0.539053119617719,0.546153686820941,0.553254254024163,0.560354821227384,0.567455388430606,0.574555955633827,0.581656522837049,0.58875709004027,0.595857657243492,0.602958224446714,0.610058791649935,0.617159358853157,0.624259926056378,0.6313604932596,0.638461060462821,0.645561627666043,0.652662194869264,0.659762762072486,0.666863329275707,0.673963896478929,0.68106446368215,0.688165030885372,0.695265598088594,0.702366165291815,0.709466732495037,0.716567299698258,0.72366786690148,0.730768434104702,0.737869001307923,0.744969568511145,0.752070135714367,0.759170702917588,0.76627127012081,0.773371837324031,0.780472404527253,0.787572971730474,0.794673538933696,0.801774106136918,0.808874673340139,0.815975240543361,0.823075807746583,0.830176374949804,0.837276942153026,0.844377509356247,0.851478076559469,0.85857864376269,0.867419554854849,0.876256412016423,0.885093268947093,0.893934048492683,0.902774828140895,0.911611685225499,0.920448542233134,0.929289321881345,0.938130101529556,0.946966958537192,0.955803815621795,0.964644595270007,0.973485374815597,0.982322231746268,0.991159088907842,1,1.00625146818513,1.01250006980846,1.01874867126851,1.02500004643617,1.0312514216764,1.0375000232453,1.04374862475977,1.05,1.05625137524023,1.0624999767547,1.0687485783236,1.07499995356383,1.08125132873149,1.08749993019154,1.09374853181487,1.1,1.105,1.11,1.115,1.12,1.125,1.13,1.135,1.14,1.145,1.15,1.155,1.16,1.165,1.17,1.175,1.18,1.185,1.19,1.195,1.2,1.205,1.21,1.215,1.22,1.225,1.23,1.235,1.24,1.245,1.25,1.255,1.26,1.265,1.27,1.275,1.28,1.285,1.29,1.295,1.3,1.305,1.31,1.315,1.32,1.325,1.33,1.335,1.34,1.345,1.35,1.355,1.36,1.365,1.37,1.375,1.38,1.385,1.39,1.395,1.4,1.405,1.41,1.415,1.42,1.425,1.43,1.435,1.44,1.445,1.45,1.455,1.46,1.465,1.47,1.475,1.48,1.485,1.49,1.495,1.5,1.505,1.51,1.515,1.52,1.525,1.53,1.535,1.54,1.545,1.55,1.555,1.56,1.565,1.57,1.575,1.58,1.585,1.59,1.595,1.6,1.605,1.61,1.615,1.62,1.625,1.63,1.635,1.64,1.645,1.65,1.655,1.66,1.665,1.67,1.675,1.68,1.685,1.69,1.695,1.7,1.705,1.71,1.715,1.72,1.725,1.73,1.735,1.74,1.745,1.75,1.755,1.76,1.765,1.77,1.775,1.78,1.785,1.79,1.795,1.8,1.805,1.81,1.815,1.82,1.825,1.83,1.835,1.84,1.845,1.85,1.855,1.86,1.865,1.87,1.875,1.88,1.885,1.89,1.895,1.9,1.90625146818513,1.91250006980846,1.91874867126851,1.92500004643617,1.9312514216764,1.9375000232453,1.94374862475977,1.95,1.95625137524023,1.9624999767547,1.9687485783236,1.97499995356383,1.98125132873149,1.98749993019154,1.99374853181487,2,2.00884091109216,2.01767776825373,2.0265146251844,2.03535540472999,2.04419618437821,2.05303304146281,2.06186989847044,2.07071067811865,2.07955145776687,2.0883883147745,2.0972251718591,2.10606595150732,2.11490673105291,2.12374358798358,2.13258044514515,2.14142135623731,2.14852192344053,2.15562249064375,2.16272305784697,2.1698236250502,2.17692419225342,2.18402475945664,2.19112532665986,2.19822589386308,2.2053264610663,2.21242702826953,2.21952759547275,2.22662816267597,2.23372872987919,2.24082929708241,2.24792986428563,2.25503043148886,2.26213099869208,2.2692315658953,2.27633213309852,2.28343270030174,2.29053326750496,2.29763383470819,2.30473440191141,2.31183496911463,2.31893553631785,2.32603610352107,2.33313667072429,2.34023723792751,2.34733780513074,2.35443837233396,2.36153893953718,2.3686395067404,2.37574007394362,2.38284064114684,2.38994120835007,2.39704177555329,2.40414234275651,2.41124290995973,2.41834347716295,2.42544404436617,2.4325446115694,2.43964517877262,2.44674574597584,2.45384631317906,2.46094688038228,2.4680474475855,2.47514801478872,2.48224858199195,2.48934914919517,2.49644971639839,2.50355028360161,2.51065085080483,2.51775141800805,2.52485198521128,2.5319525524145,2.53905311961772,2.54615368682094,2.55325425402416,2.56035482122738,2.56745538843061,2.57455595563383,2.58165652283705,2.58875709004027,2.59585765724349,2.60295822444671,2.61005879164993,2.61715935885316,2.62425992605638,2.6313604932596,2.63846106046282,2.64556162766604,2.65266219486926,2.65976276207249,2.66686332927571,2.67396389647893,2.68106446368215,2.68816503088537,2.69526559808859,2.70236616529182,2.70946673249504,2.71656729969826,2.72366786690148,2.7307684341047,2.73786900130792,2.74496956851115,2.75207013571437,2.75917070291759,2.76627127012081,2.77337183732403,2.78047240452725,2.78757297173047,2.7946735389337,2.80177410613692,2.80887467334014,2.81597524054336,2.82307580774658,2.8301763749498,2.83727694215303,2.84437750935625,2.85147807655947,2.85857864376269,2.86741955485485,2.87625641201642,2.88509326894709,2.89393404849268,2.90277482814089,2.9116116852255,2.92044854223313,2.92928932188134,2.93813010152956,2.94696695853719,2.9558038156218,2.96464459527001,2.9734853748156,2.98232223174627,2.99115908890784,3,3.00625146818513,3.01250006980846,3.01874867126851,3.02500004643617,3.0312514216764,3.0375000232453,3.04374862475977,3.05,3.05625137524023,3.0624999767547,3.0687485783236,3.07499995356383,3.08125132873149,3.08749993019154,3.09374853181487,3.1,3.105,3.11,3.115,3.12,3.125,3.13,3.135,3.14,3.145,3.15,3.155,3.16,3.165,3.17,3.175,3.18,3.185,3.19,3.195,3.2,3.205,3.21,3.215,3.22,3.225,3.23,3.235,3.24,3.245,3.25,3.255,3.26,3.265,3.27,3.275,3.28,3.285,3.29,3.295,3.3,3.305,3.31,3.315,3.32,3.325,3.33,3.335,3.34,3.345,3.35,3.355,3.36,3.365,3.37,3.375,3.38,3.385,3.39,3.395,3.4,3.405,3.41,3.415,3.42,3.425,3.43,3.435,3.44,3.445,3.45,3.455,3.46,3.465,3.47,3.475,3.48,3.485,3.49,3.495,3.5,3.505,3.51,3.515,3.52,3.525,3.53,3.535,3.54,3.545,3.55,3.555,3.56,3.565,3.57,3.575,3.58,3.585,3.59,3.595,3.6,3.605,3.61,3.615,3.62,3.625,3.63,3.635,3.64,3.645,3.65,3.655,3.66,3.665,3.67,3.675,3.68,3.685,3.69,3.695,3.7,3.705,3.71,3.715,3.72,3.725,3.73,3.735,3.74,3.745,3.75,3.755,3.76,3.765,3.77,3.775,3.78,3.785,3.79,3.795,3.8,3.805,3.81,3.815,3.82,3.825,3.83,3.835,3.84,3.845,3.85,3.855,3.86,3.865,3.87,3.875,3.88,3.885,3.89,3.895,3.9,3.90625146818513,3.91250006980846,3.91874867126851,3.92500004643617,3.9312514216764,3.9375000232453,3.94374862475977,3.95,3.95625137524023,3.9624999767547,3.9687485783236,3.97499995356383,3.98125132873149,3.98749993019154,3.99374853181487,4,4.00884091109216,4.01767776825373,4.0265146251844,4.03535540472999,4.0441961843782,4.05303304146281,4.06186989847044,4.07071067811865,4.07955145776686,4.0883883147745,4.0972251718591,4.10606595150732,4.11490673105291,4.12374358798358,4.13258044514515,4.14142135623731
1,1,1,1,1,1,1,1,1,1,1,1,1,1,1,1,1,1,1,1,1,1,1,1,1,1,1,1,1,1,1,1,1,1,1,1,1,1,1,1,1,1,1,1,1,1,1,1,1,1,1,1,1,1,1,1,1,1,1,1,1,1,1,1,1,1,1,1,1,1,1,1,1,1,1,1,1,1,1,1,1,1,1,1,1,1,1,1,1,1,1,1,1,1,1,1,1,1,1,1,1,2,2,2,2,2,2,2,2,2,2,2,2,2,2,2,2,3,3,3,3,3,3,3,3,3,3,3,3,3,3,3,3,4,4,4,4,4,4,4,4,4,4,4,4,4,4,4,4,4,4,4,4,4,4,4,4,4,4,4,4,4,4,4,4,4,4,4,4,4,4,4,4,4,4,4,4,4,4,4,4,4,4,4,4,4,4,4,4,4,4,4,4,4,4,4,4,4,4,4,4,4,4,4,4,4,4,4,4,4,4,4,4,4,4,4,4,4,4,4,4,4,4,4,4,4,4,4,4,4,4,4,4,4,4,4,4,4,4,4,4,4,4,4,4,4,4,4,4,4,4,4,4,4,4,4,4,4,4,4,4,4,4,4,4,4,4,4,4,4,4,4,4,4,4,4,4,4,4,4,4,4,4,4,4,4,4,4,4,4,4,4,4,5,5,5,5,5,5,5,5,5,5,5,5,5,5,5,5,6,6,6,6,6,6,6,6,6,6,6,6,6,6,6,6,7,7,7,7,7,7,7,7,7,7,7,7,7,7,7,7,7,7,7,7,7,7,7,7,7,7,7,7,7,7,7,7,7,7,7,7,7,7,7,7,7,7,7,7,7,7,7,7,7,7,7,7,7,7,7,7,7,7,7,7,7,7,7,7,7,7,7,7,7,7,7,7,7,7,7,7,7,7,7,7,7,7,7,7,7,7,7,7,7,7,7,7,7,7,7,7,7,7,7,7,7,8,8,8,8,8,8,8,8,8,8,8,8,8,8,8,8,9,9,9,9,9,9,9,9,9,9,9,9,9,9,9,9,10,10,10,10,10,10,10,10,10,10,10,10,10,10,10,10,10,10,10,10,10,10,10,10,10,10,10,10,10,10,10,10,10,10,10,10,10,10,10,10,10,10,10,10,10,10,10,10,10,10,10,10,10,10,10,10,10,10,10,10,10,10,10,10,10,10,10,10,10,10,10,10,10,10,10,10,10,10,10,10,10,10,10,10,10,10,10,10,10,10,10,10,10,10,10,10,10,10,10,10,10,10,10,10,10,10,10,10,10,10,10,10,10,10,10,10,10,10,10,10,10,10,10,10,10,10,10,10,10,10,10,10,10,10,10,10,10,10,10,10,10,10,10,10,10,10,10,10,10,10,10,10,10,10,10,10,10,10,10,10,11,11,11,11,11,11,11,11,11,11,11,11,11,11,11,11,12,12,12,12,12,12,12,12,12,12,12,12,12,12,12,12
1,1,1,1,1,1,1,1,1,1,1,1,1,1,1,1,1,1,1,1,1,1,1,1,1,1,1,1,1,1,1,1,1,1,1,1,1,1,1,1,1,1,1,1,1,1,1,1,1,1,1,1,1,1,1,1,1,1,1,1,1,1,1,1,1,1,1,1,1,1,1,1,1,1,1,1,1,1,1,1,1,1,1,1,1,1,1,1,1,1,1,1,1,1,1,1,1,1,1,1,1,1,1,1,1,1,1,1,1,1,1,1,1,1,1,1,1,1,1,1,1,1,1,1,1,1,1,1,1,1,1,1,1,1,1,1,1,1,1,1,1,1,1,1,1,1,1,1,1,1,1,1,1,1,1,1,1,1,1,1,1,1,1,1,1,1,1,1,1,1,1,1,1,1,1,1,1,1,1,1,1,1,1,1,1,1,1,1,1,1,1,1,1,1,1,1,1,1,1,1,1,1,1,1,1,1,1,1,1,1,1,1,1,1,1,1,1,1,1,1,1,1,1,1,1,1,1,1,1,1,1,1,1,1,1,1,1,1,1,1,1,1,1,1,1,1,1,1,1,1,1,1,1,1,1,1,1,1,1,1,1,1,1,1,1,1,1,1,1,1,1,1,1,1,1,1,1,1,1,1,1,1,1,1,1,1,1,1,1,1,1,1,1,1,1,1,1,1,1,1,1,1,1,1,1,1,1,1,1,1,1,1,1,1,1,1,1,1,1,1,1,1,1,1,1,1,1,1,1,1,1,1,1,1,1,1,1,1,1,1,1,1,1,1,1,1,1,1,1,1,1,1,1,1,1,1,1,1,1,1,1,1,1,1,1,1,1,1,1,1,1,1,1,1,1,1,1,1,1,1,1,1,1,1,1,1,1,1,1,1,1,1,1,1,1,1,1,1,1,1,1,1,1,1,1,1,1,1,1,1,1,1,1,1,1,1,1,1,1,1,1,1,1,1,1,1,1,1,1,1,1,1,1,1,1,1,1,1,1,1,1,1,1,1,1,1,1,1,1,1,1,1,1,1,1,1,1,1,1,1,1,1,1,1,1,1,1,1,1,1,1,1,1,1,1,1,1,1,1,1,1,1,1,1,1,1,1,1,1,1,1,1,1,1,1,1,1,1,1,1,1,1,1,1,1,1,1,1,1,1,1,1,1,1,1,1,1,1,1,1,1,1,1,1,1,1,1,1,1,1,1,1,1,1,1,1,1,1,1,1,1,1,1,1,1,1,1,1,1,1,1,1,1,1,1,1,1,1,1,1,1,1,1,1,1,1,1,1,1,1,1,1,1,1,1,1,1,1,1,1,1,1,1,1,1,1,1,1,1,1,1,1,1,1,1,1,1,1,1,1,1,1,1,1,1,1,1,1,1,1,1,1,1,1,1,1,1,1,1,1,1,1,1,1,1,1,1,1,1,1,1,1,1,1,1,1,1,1,1,1,1,1,1,1,1,1,1,1,1,1
0,0,0,0,0,0,0,0,0,0,0,0,0,0,0,0,0,0,0,0,0,0,0,0,0,0,0,0,0,0,0,0,0,0,0,0,0,0,0,0,0,0,0,0,0,0,0,0,0,0,0,0,0,0,0,0,0,0,0,0,0,0,0,0,0,0,0,0,0,0,0,0,0,0,0,0,0,0,0,0,0,0,0,0,0,0,0,0,0,0,0,0,0,0,0,0,0,0,0,0,0,0,0,0,0,0,0,0,0,0,0,0,0,0,0,0,0,0,0,0,0,0,0,0,0,0,0,0,0,0,0,0,0,0,0,0,0,0,0,0,0,0,0,0,0,0,0,0,0,0,0,0,0,0,0,0,0,0,0,0,0,0,0,0,0,0,0,0,0,0,0,0,0,0,0,0,0,0,0,0,0,0,0,0,0,0,0,0,0,0,0,0,0,0,0,0,0,0,0,0,0,0,0,0,0,0,0,0,0,0,0,0,0,0,0,0,0,0,0,0,0,0,0,0,0,0,0,0,0,0,0,0,0,0,0,0,0,0,0,0,0,0,0,0,0,0,0,0,0,0,0,0,0,0,0,0,0,0,0,0,0,0,0,0,0,0,0,0,0,0,0,0,0,0,0,0,0,0,0,0,0,0,0,0,0,0,0,0,0,0,0,0,0,0,0,0,0,0,0,0,0,0,0,0,0,0,0,0,0,0,0,0,0,0,0,0,0,0,0,0,0,0,0,0,0,0,0,0,0,0,0,0,0,0,0,0,0,0,0,0,0,0,0,0,0,0,0,0,0,0,0,0,0,0,0,0,0,0,0,0,0,0,0,0,0,0,0,0,0,0,0,0,0,0,0,0,0,0,0,0,0,0,0,0,0,0,0,0,0,0,0,0,0,0,0,0,0,0,0,0,0,0,0,0,0,0,0,0,0,0,0,0,0,0,0,0,0,0,0,0,0,0,0,0,0,0,0,0,0,0,0,0,0,0,0,0,0,0,0,0,0,0,0,0,0,0,0,0,0,0,0,0,0,0,0,0,0,0,0,0,0,0,0,0,0,0,0,0,0,0,0,0,0,0,0,0,0,0,0,0,0,0,0,0,0,0,0,0,0,0,0,0,0,0,0,0,0,0,0,0,0,0,0,0,0,0,0,0,0,0,0,0,0,0,0,0,0,0,0,0,0,0,0,0,0,0,0,0,0,0,0,0,0,0,0,0,0,0,0,0,0,0,0,0,0,0,0,0,0,0,0,0,0,0,0,0,0,0,0,0,0,0,0,0,0,0,0,0,0,0,0,0,0,0,0,0,0,0,0,0,0,0,0,0,0,0,0,0,0,0,0,0,0,0,0,0,0,0,0,0,0,0,0,0,0,0,0,0,0,0,0,0,0,0,0,0,0,0,0,0,0,0,0,0,0,0,0,0,0,0,0,0,0,0,0,0,0,0,0,0,0,0,0,0,0,0,0,0,0,0
